{
	"info": {
		"_postman_id": "ed04d0e1-f7a6-423c-9ee6-a0a0fe268c29",
		"name": "ejercicio-8",
		"schema": "https://schema.getpostman.com/json/collection/v2.1.0/collection.json"
	},
	"item": [
		{
			"name": "Get",
			"request": {
				"method": "GET",
				"header": [],
				"url": {
					"raw": "http://localhost:8080/api/delivery/",
					"protocol": "http",
					"host": [
						"localhost"
					],
					"port": "8080",
					"path": [
						"api",
						"delivery",
						""
					]
				}
			},
			"response": []
		},
		{
			"name": "Post",
			"request": {
				"method": "POST",
				"header": [],
				"body": {
					"mode": "raw",
					"raw": "{\r\n    \"repartidor\": \"Rodrigo\",\r\n    \"cliente\": \"Ricardo\",\r\n    \"pedido\": {\r\n        \"refresco\": \"Coca Cola\",\r\n        \"pizza\": \"Doble\"\r\n    },\r\n    \"direccion\": \"Av. Blanco Galindo y Beigin\",\r\n    \"precio\": {\r\n        \"refresco\": 10,\r\n        \"pizza\": 90\r\n    },\r\n    \"moneda\": \"Bs\"\r\n}",
					"options": {
						"raw": {
							"language": "json"
						}
					}
				},
				"url": {
					"raw": "http://localhost:8080/api/delivery/",
					"protocol": "http",
					"host": [
						"localhost"
					],
					"port": "8080",
					"path": [
						"api",
						"delivery",
						""
					]
				}
			},
			"response": []
		},
		{
			"name": "Put",
			"request": {
				"method": "PUT",
				"header": [],
				"body": {
					"mode": "raw",
					"raw": "{\r\n    \"repartidor\": \"Felix\",\r\n    \"cliente\": \"Fernando\",\r\n    \"pedido\": {\r\n        \"refresco\": \"Fanta\",\r\n        \"pizza\": \"Simple\"\r\n    },\r\n    \"direccion\": \"Av. Dorbinig y Beigin\",\r\n    \"precio\": {\r\n        \"refresco\": 8,\r\n        \"pizza\": 72\r\n    },\r\n    \"moneda\": \"$\"\r\n}",
					"options": {
						"raw": {
							"language": "json"
						}
					}
				},
				"url": {
					"raw": "http://localhost:8080/api/delivery/183de283-de01-48ec-941a-b4c4d81ded39",
					"protocol": "http",
					"host": [
						"localhost"
					],
					"port": "8080",
					"path": [
						"api",
						"delivery",
						"183de283-de01-48ec-941a-b4c4d81ded39"
					]
				}
			},
			"response": []
		},
		{
			"name": "Del",
			"request": {
				"method": "DELETE",
				"header": [],
				"url": {
					"raw": "http://localhost:8080/api/delivery/edfe00ca-3f2b-4e97-ba78-a824dcaad9f5",
					"protocol": "http",
					"host": [
						"localhost"
					],
					"port": "8080",
					"path": [
						"api",
						"delivery",
						"edfe00ca-3f2b-4e97-ba78-a824dcaad9f5"
					]
				}
			},
			"response": []
		}
	]
}